{
  "tools": "c2a0453c51",
  "packages": {
    "accounts-base": "dfa55f6da4",
    "accounts-facebook": "e2a0f50f82",
    "accounts-github": "bfa345fe57",
    "accounts-google": "b72b6c0672",
    "accounts-meetup": "8ce2845049",
    "accounts-meteor-developer": "aae8672130",
    "accounts-oauth": "959010b764",
    "accounts-password": "abebd053ff",
    "accounts-twitter": "cac58b5e9a",
    "accounts-ui": "5bc8cce367",
    "accounts-ui-unstyled": "1a84a949d6",
    "accounts-weibo": "8d825698e7",
    "amplify": "6671fbe52a",
    "appcache": "2172136320",
    "application-configuration": "d02568b27c",
    "audit-argument-checks": "cd07d6fea7",
    "autopublish": "7a2217fa53",
    "autoupdate": "84dea7cafd",
    "backbone": "c3df6c819a",
    "binary-heap": "88cc292ed4",
    "bootstrap": "d54e97ba02",
    "browser-policy": "7d136c95ab",
    "browser-policy-common": "4f9e94f543",
    "browser-policy-content": "800e2da825",
    "browser-policy-framing": "1b51623161",
    "callback-hook": "5c06465172",
    "check": "ef476b4934",
    "code-prettify": "e6c7a98178",
    "coffeescript": "3f8874bb96",
    "coffeescript-test-helper": "787a6b2713",
    "ctl": "8b1f5c28e4",
    "ctl-helper": "983ce8690f",
    "d3": "2d04e5e39f",
    "deps": "7c5e90f6ce",
    "dev-bundle-fetcher": "a85812d632",
    "disable-oplog": "c247ada55a",
    "ejson": "c1297c6afe",
    "email": "fd5d1ef8bb",
    "facebook": "142a47c904",
    "facts": "72d17f35e7",
    "follower-livedata": "8fddee284e",
    "force-ssl": "46b871a086",
    "geojson-utils": "b86fd8bcbc",
    "github": "daf8024894",
    "google": "41095c8c0f",
    "handlebars": "854145b50a",
    "html-tools": "f5d777789c",
    "html5-tokenizer": "37d52fa0d6",
    "htmljs": "63b6fb4340",
    "http": "9d16a46c68",
    "id-map": "49500389df",
    "insecure": "e2676a201d",
    "jquery": "2ff5a27117",
    "jquery-history": "9604e33b05",
    "jquery-layout": "9e44c57c41",
    "jquery-waypoints": "8f37e27a0d",
    "js-analyze": "272e8f8dca",
    "js-analyze-tests": "25e35011d3",
    "json": "0ec6111603",
    "jsparse": "ba1cf321c1",
    "less": "d2f068c102",
    "livedata": "64382cf5db",
    "localstorage": "023c2b3642",
    "logging": "db5a9e573e",
    "meetup": "07c2f977fa",
    "meteor": "8e32057b0d",
    "meteor-developer": "0a8b6b0e29",
    "meyerweb-reset": "0030e5fe7a",
    "minifiers": "7481b2dda4",
    "minimongo": "25c78d4be7",
    "mongo-livedata": "de426c554a",
    "oauth": "161eb0c430",
    "oauth1": "3dc99f0e4e",
    "oauth2": "238b534f1f",
    "observe-sequence": "ecebf33d4c",
    "ordered-dict": "a672da867b",
    "preserve-inputs": "9772ab691d",
    "random": "960b6ba7c9",
    "reactive-dict": "430eebbd2d",
    "reload": "0cdb8c09b8",
    "retry": "6b3f50beec",
    "routepolicy": "5a96ca4a23",
    "service-configuration": "9db5187926",
    "session": "5b49f7847a",
    "showdown": "cfc100b776",
    "spacebars": "074d083a6d",
    "spacebars-compiler": "3d72fb163a",
    "spacebars-tests": "5d823c63bd",
    "spiderable": "5f0bfe66fc",
    "srp": "cda01d1308",
    "standard-app-packages": "9859ad2b1a",
    "star-translate": "17f1a6a3c0",
    "startup": "170e69b24f",
    "stylus": "996778ce6a",
    "templating": "3ed2abdb98",
    "test-helpers": "708786ac21",
    "test-in-browser": "61fd776c6c",
    "test-in-console": "55b146a280",
    "tinytest": "2b0be057f9",
    "twitter": "2b15015059",
    "ui": "d98c49748f",
    "underscore": "381c001cdc",
    "underscore-tests": "7355d121ed",
    "webapp": "9dd975a6fc",
    "weibo": "ccffc7115d"
  },
  "upgraders": [
    "app-packages",
    "no-preserve-inputs"
  ]
}