{
  "dependencies": {
    "stylus": {
      "version": "0.30.1",
      "from": "https://registry.npmjs.org/stylus/-/stylus-0.30.1.tgz",
      "resolved": "https://registry.npmjs.org/stylus/-/stylus-0.30.1.tgz",
      "dependencies": {
        "cssom": {
          "version": "0.2.5",
          "from": "cssom@0.2.5"
        },
        "mkdirp": {
          "version": "0.3.5",
          "from": "https://registry.npmjs.org/mkdirp/-/mkdirp-0.3.5.tgz",
          "resolved": "https://registry.npmjs.org/mkdirp/-/mkdirp-0.3.5.tgz"
        },
        "debug": {
          "version": "0.7.2",
          "from": "https://registry.npmjs.org/debug/-/debug-0.7.2.tgz",
          "resolved": "https://registry.npmjs.org/debug/-/debug-0.7.2.tgz"
        }
      }
    },
    "nib": {
      "version": "0.8.2",
      "from": "https://registry.npmjs.org/nib/-/nib-0.8.2.tgz",
      "resolved": "https://registry.npmjs.org/nib/-/nib-0.8.2.tgz"
    }
  }
}
