{
  "format": "unipackage-slice-pre1",
  "packageVariables": [
    {
      "name": "_",
      "export": true
    },
    {
      "name": "exports"
    }
  ],
  "uses": [
    {
      "package": "meteor",
      "unordered": true
    }
  ],
  "resources": [
    {
      "type": "prelink",
      "file": "browser/packages/underscore.js",
      "length": 149390,
      "offset": 0,
      "servePath": "/packages/underscore.js",
      "sourceMap": "browser/packages/underscore.js.map"
    }
  ]
}