{
  "format": "unipackage-slice-pre1",
  "packageVariables": [
    {
      "name": "ServiceConfiguration",
      "export": true
    }
  ],
  "uses": [
    {
      "package": "meteor"
    },
    {
      "package": "accounts-base"
    },
    {
      "package": "mongo-livedata"
    }
  ],
  "resources": [
    {
      "type": "prelink",
      "file": "os/packages/service-configuration.js",
      "length": 3038,
      "offset": 0,
      "servePath": "/packages/service-configuration.js",
      "sourceMap": "os/packages/service-configuration.js.map"
    }
  ]
}