{
  "format": "unipackage-slice-pre1",
  "packageVariables": [
    {
      "name": "Meetup",
      "export": true
    }
  ],
  "uses": [
    {
      "package": "meteor"
    },
    {
      "package": "oauth2"
    },
    {
      "package": "oauth"
    },
    {
      "package": "templating"
    },
    {
      "package": "underscore"
    },
    {
      "package": "random"
    },
    {
      "package": "service-configuration"
    }
  ],
  "resources": [
    {
      "type": "prelink",
      "file": "browser/packages/meetup.js",
      "length": 7582,
      "offset": 0,
      "servePath": "/packages/meetup.js",
      "sourceMap": "browser/packages/meetup.js.map"
    }
  ]
}