{
  "format": "unipackage-slice-pre1",
  "packageVariables": [
    {
      "name": "WebApp",
      "export": true
    }
  ],
  "uses": [
    {
      "package": "meteor"
    },
    {
      "package": "underscore"
    },
    {
      "package": "application-configuration",
      "unordered": true
    },
    {
      "package": "follower-livedata",
      "unordered": true
    }
  ],
  "resources": [
    {
      "type": "prelink",
      "file": "browser/packages/webapp.js",
      "length": 1727,
      "offset": 0,
      "servePath": "/packages/webapp.js",
      "sourceMap": "browser/packages/webapp.js.map"
    }
  ]
}