{
  "format": "unipackage-slice-pre1",
  "packageVariables": [
    {
      "name": "Hook",
      "export": true
    }
  ],
  "uses": [
    {
      "package": "meteor"
    },
    {
      "package": "underscore"
    }
  ],
  "resources": [
    {
      "type": "prelink",
      "file": "browser/packages/callback-hook.js",
      "length": 9901,
      "offset": 0,
      "servePath": "/packages/callback-hook.js",
      "sourceMap": "browser/packages/callback-hook.js.map"
    }
  ]
}