{
  "format": "unipackage-slice-pre1",
  "noExports": true,
  "packageVariables": [],
  "uses": [
    {
      "package": "meteor"
    }
  ],
  "resources": [
    {
      "type": "prelink",
      "file": "tests.os/packages/callback-hooktests.js",
      "length": 0,
      "offset": 0,
      "servePath": "/packages/callback-hook:tests.js",
      "sourceMap": "tests.os/packages/callback-hooktests.js.map"
    }
  ]
}