{
  "format": "unipackage-slice-pre1",
  "packageVariables": [],
  "uses": [
    {
      "package": "meteor"
    },
    {
      "package": "underscore"
    },
    {
      "package": "random"
    },
    {
      "package": "accounts-base"
    },
    {
      "package": "accounts-oauth"
    },
    {
      "package": "meteor-developer"
    }
  ],
  "implies": [
    {
      "package": "accounts-base"
    }
  ],
  "resources": [
    {
      "type": "css",
      "file": "browser/packages/accounts-meteor-developer/meteor-developer-login-button.css",
      "length": 2328,
      "offset": 0,
      "servePath": "/packages/accounts-meteor-developer/meteor-developer-login-button.css"
    },
    {
      "type": "prelink",
      "file": "browser/packages/accounts-meteor-developer.js",
      "length": 2994,
      "offset": 0,
      "servePath": "/packages/accounts-meteor-developer.js",
      "sourceMap": "browser/packages/accounts-meteor-developer.js.map"
    }
  ]
}