{
  "format": "unipackage-slice-pre1",
  "packageVariables": [
    {
      "name": "HTML",
      "export": true
    },
    {
      "name": "callReactiveFunction"
    },
    {
      "name": "stopWithLater"
    }
  ],
  "uses": [
    {
      "package": "meteor"
    }
  ],
  "resources": [
    {
      "type": "prelink",
      "file": "browser/packages/htmljs.js",
      "length": 57780,
      "offset": 0,
      "servePath": "/packages/htmljs.js",
      "sourceMap": "browser/packages/htmljs.js.map"
    }
  ]
}