{
  "format": "unipackage-slice-pre1",
  "noExports": true,
  "packageVariables": [],
  "uses": [
    {
      "package": "meteor"
    },
    {
      "package": "htmljs"
    },
    {
      "package": "html-tools"
    },
    {
      "package": "tinytest"
    },
    {
      "package": "underscore"
    }
  ],
  "resources": [
    {
      "type": "prelink",
      "file": "tests.os/packages/htmljstests.js",
      "length": 11123,
      "offset": 0,
      "servePath": "/packages/htmljs:tests.js",
      "sourceMap": "tests.os/packages/htmljstests.js.map"
    }
  ]
}