{
  "format": "unipackage-slice-pre1",
  "packageVariables": [
    {
      "name": "HTMLTools",
      "export": true
    },
    {
      "name": "Scanner"
    },
    {
      "name": "makeRegexMatcher"
    },
    {
      "name": "getCharacterReference"
    },
    {
      "name": "getComment"
    },
    {
      "name": "getDoctype"
    },
    {
      "name": "getHTMLToken"
    },
    {
      "name": "getTagToken"
    },
    {
      "name": "TEMPLATE_TAG_POSITION"
    },
    {
      "name": "isLookingAtEndTag"
    },
    {
      "name": "codePointToString"
    },
    {
      "name": "getContent"
    },
    {
      "name": "getRCData"
    }
  ],
  "uses": [
    {
      "package": "meteor"
    },
    {
      "package": "htmljs"
    }
  ],
  "resources": [
    {
      "type": "prelink",
      "file": "browser/packages/html-tools.js",
      "length": 411305,
      "offset": 0,
      "servePath": "/packages/html-tools.js",
      "sourceMap": "browser/packages/html-tools.js.map"
    }
  ]
}