{
  "format": "unipackage-slice-pre1",
  "noExports": true,
  "packageVariables": [],
  "uses": [
    {
      "package": "meteor"
    },
    {
      "package": "tinytest"
    },
    {
      "package": "binary-heap"
    }
  ],
  "resources": [
    {
      "type": "prelink",
      "file": "tests.os/packages/binary-heaptests.js",
      "length": 11722,
      "offset": 0,
      "servePath": "/packages/binary-heap:tests.js",
      "sourceMap": "tests.os/packages/binary-heaptests.js.map"
    }
  ]
}