{
  "format": "unipackage-slice-pre1",
  "packageVariables": [],
  "uses": [
    {
      "package": "meteor"
    },
    {
      "package": "underscore"
    },
    {
      "package": "browser-policy-common"
    },
    {
      "package": "webapp"
    }
  ],
  "implies": [
    {
      "package": "browser-policy-common"
    }
  ],
  "resources": [
    {
      "type": "prelink",
      "file": "os/packages/browser-policy-content.js",
      "length": 24536,
      "offset": 0,
      "servePath": "/packages/browser-policy-content.js",
      "sourceMap": "os/packages/browser-policy-content.js.map"
    }
  ]
}