{
  "format": "unipackage-slice-pre1",
  "packageVariables": [
    {
      "name": "AppConfig",
      "export": true
    }
  ],
  "uses": [
    {
      "package": "meteor"
    },
    {
      "package": "logging"
    },
    {
      "package": "underscore"
    },
    {
      "package": "livedata"
    },
    {
      "package": "ejson"
    },
    {
      "package": "follower-livedata"
    },
    {
      "package": "mongo-livedata",
      "unordered": true
    }
  ],
  "resources": [
    {
      "type": "prelink",
      "file": "os/packages/application-configuration.js",
      "length": 19147,
      "offset": 0,
      "servePath": "/packages/application-configuration.js",
      "sourceMap": "os/packages/application-configuration.js.map"
    }
  ]
}