{
  "format": "unipackage-slice-pre1",
  "packageVariables": [
    {
      "name": "Template",
      "export": true
    }
  ],
  "uses": [
    {
      "package": "meteor"
    },
    {
      "package": "ui"
    }
  ],
  "implies": [
    {
      "package": "meteor"
    },
    {
      "package": "ui"
    }
  ],
  "resources": [
    {
      "type": "prelink",
      "file": "browser/packages/templating.js",
      "length": 2730,
      "offset": 0,
      "servePath": "/packages/templating.js",
      "sourceMap": "browser/packages/templating.js.map"
    }
  ]
}