{
  "format": "unipackage-slice-pre1",
  "packageVariables": [],
  "uses": [
    {
      "package": "meteor"
    },
    {
      "package": "accounts-base"
    },
    {
      "package": "srp"
    },
    {
      "package": "underscore"
    },
    {
      "package": "livedata"
    }
  ],
  "implies": [
    {
      "package": "accounts-base"
    }
  ],
  "resources": [
    {
      "type": "prelink",
      "file": "browser/packages/accounts-password.js",
      "length": 15648,
      "offset": 0,
      "servePath": "/packages/accounts-password.js",
      "sourceMap": "browser/packages/accounts-password.js.map"
    }
  ]
}