{
  "dependencies": {
    "coffee-script": {
      "version": "1.5.0",
      "from": "https://registry.npmjs.org/coffee-script/-/coffee-script-1.5.0.tgz",
      "resolved": "https://registry.npmjs.org/coffee-script/-/coffee-script-1.5.0.tgz"
    }
  }
}
