{
  "format": "unipackage-slice-pre1",
  "packageVariables": [
    {
      "name": "Twitter",
      "export": true
    }
  ],
  "uses": [
    {
      "package": "meteor"
    },
    {
      "package": "http"
    },
    {
      "package": "templating"
    },
    {
      "package": "oauth1"
    },
    {
      "package": "oauth"
    },
    {
      "package": "random"
    },
    {
      "package": "service-configuration"
    }
  ],
  "resources": [
    {
      "type": "prelink",
      "file": "browser/packages/twitter.js",
      "length": 7577,
      "offset": 0,
      "servePath": "/packages/twitter.js",
      "sourceMap": "browser/packages/twitter.js.map"
    }
  ]
}