{
  "format": "unipackage-slice-pre1",
  "packageVariables": [
    {
      "name": "UI",
      "export": true
    },
    {
      "name": "Handlebars",
      "export": true
    },
    {
      "name": "reportUIException"
    },
    {
      "name": "_extend"
    },
    {
      "name": "Component"
    },
    {
      "name": "findComponentWithProp"
    },
    {
      "name": "findComponentWithHelper"
    },
    {
      "name": "getComponentData"
    },
    {
      "name": "updateTemplateInstance"
    },
    {
      "name": "AttributeHandler"
    },
    {
      "name": "makeAttributeHandler"
    }
  ],
  "uses": [
    {
      "package": "meteor"
    },
    {
      "package": "jquery"
    },
    {
      "package": "deps"
    },
    {
      "package": "random"
    },
    {
      "package": "ejson"
    },
    {
      "package": "underscore"
    },
    {
      "package": "ordered-dict"
    },
    {
      "package": "minimongo"
    },
    {
      "package": "observe-sequence"
    },
    {
      "package": "htmljs"
    }
  ],
  "implies": [
    {
      "package": "htmljs"
    }
  ],
  "resources": [
    {
      "type": "prelink",
      "file": "browser/packages/ui.js",
      "length": 309713,
      "offset": 0,
      "servePath": "/packages/ui.js",
      "sourceMap": "browser/packages/ui.js.map"
    }
  ]
}