{
  "format": "unipackage-slice-pre1",
  "packageVariables": [
    {
      "name": "passwordSignupFields"
    },
    {
      "name": "displayName"
    },
    {
      "name": "getLoginServices"
    },
    {
      "name": "hasPasswordService"
    },
    {
      "name": "dropdown"
    },
    {
      "name": "validateUsername"
    },
    {
      "name": "validateEmail"
    },
    {
      "name": "validatePassword"
    }
  ],
  "uses": [
    {
      "package": "meteor"
    },
    {
      "package": "deps"
    },
    {
      "package": "service-configuration"
    },
    {
      "package": "accounts-base"
    },
    {
      "package": "underscore"
    },
    {
      "package": "templating"
    },
    {
      "package": "session"
    },
    {
      "package": "accounts-oauth",
      "weak": true
    },
    {
      "package": "accounts-password",
      "weak": true
    }
  ],
  "implies": [
    {
      "package": "accounts-base"
    }
  ],
  "resources": [
    {
      "type": "prelink",
      "file": "browser/packages/accounts-ui-unstyled.js",
      "length": 231395,
      "offset": 0,
      "servePath": "/packages/accounts-ui-unstyled.js",
      "sourceMap": "browser/packages/accounts-ui-unstyled.js.map"
    }
  ]
}