{
  "format": "unipackage-slice-pre1",
  "packageVariables": [],
  "uses": [
    {
      "package": "meteor"
    }
  ],
  "resources": [
    {
      "type": "prelink",
      "file": "os/packages/spacebars-tests.js",
      "length": 0,
      "offset": 0,
      "servePath": "/packages/spacebars-tests.js",
      "sourceMap": "os/packages/spacebars-tests.js.map"
    }
  ]
}