{
  "format": "unipackage-slice-pre1",
  "noExports": true,
  "packageVariables": [],
  "uses": [
    {
      "package": "meteor"
    },
    {
      "package": "underscore"
    },
    {
      "package": "spacebars"
    },
    {
      "package": "tinytest"
    },
    {
      "package": "jquery"
    },
    {
      "package": "test-helpers"
    },
    {
      "package": "showdown"
    }
  ],
  "resources": [
    {
      "type": "prelink",
      "file": "tests.os/packages/spacebars-teststests.js",
      "length": 0,
      "offset": 0,
      "servePath": "/packages/spacebars-tests:tests.js",
      "sourceMap": "tests.os/packages/spacebars-teststests.js.map"
    }
  ]
}