{
  "format": "unipackage-slice-pre1",
  "packageVariables": [
    {
      "name": "Facts",
      "export": true
    }
  ],
  "uses": [
    {
      "package": "meteor"
    },
    {
      "package": "underscore"
    },
    {
      "package": "templating"
    },
    {
      "package": "mongo-livedata"
    },
    {
      "package": "livedata"
    }
  ],
  "resources": [
    {
      "type": "prelink",
      "file": "browser/packages/facts.js",
      "length": 9759,
      "offset": 0,
      "servePath": "/packages/facts.js",
      "sourceMap": "browser/packages/facts.js.map"
    }
  ]
}