{
  "format": "unipackage-slice-pre1",
  "packageVariables": [
    {
      "name": "ObserveSequence",
      "export": true
    },
    {
      "name": "id"
    }
  ],
  "uses": [
    {
      "package": "meteor"
    },
    {
      "package": "deps"
    },
    {
      "package": "minimongo"
    }
  ],
  "resources": [
    {
      "type": "prelink",
      "file": "browser/packages/observe-sequence.js",
      "length": 26211,
      "offset": 0,
      "servePath": "/packages/observe-sequence.js",
      "sourceMap": "browser/packages/observe-sequence.js.map"
    }
  ]
}